<?xml version='1.0' encoding='utf-8'?>
<svg xmlns:xlink="http://www.w3.org/1999/xlink" xmlns="http://www.w3.org/2000/svg" id="chart-6aff37f8-c61a-4ab7-af8f-4362de46db6a" class="pygal-chart" viewBox="0 0 800 600"><!--Generated with pygal 3.0.0 (etree) ©Kozea 2012-2016 on 2022-05-22--><!--http://pygal.org--><!--http://github.com/Kozea/pygal--><defs><style type="text/css">#chart-6aff37f8-c61a-4ab7-af8f-4362de46db6a{-webkit-user-select:none;-webkit-font-smoothing:antialiased;font-family:Consolas,"Liberation Mono",Menlo,Courier,monospace}#chart-6aff37f8-c61a-4ab7-af8f-4362de46db6a .title{font-family:Consolas,"Liberation Mono",Menlo,Courier,monospace;font-size:16px}#chart-6aff37f8-c61a-4ab7-af8f-4362de46db6a .legends .legend text{font-family:Consolas,"Liberation Mono",Menlo,Courier,monospace;font-size:14px}#chart-6aff37f8-c61a-4ab7-af8f-4362de46db6a .axis text{font-family:Consolas,"Liberation Mono",Menlo,Courier,monospace;font-size:10px}#chart-6aff37f8-c61a-4ab7-af8f-4362de46db6a .axis text.major{font-family:Consolas,"Liberation Mono",Menlo,Courier,monospace;font-size:10px}#chart-6aff37f8-c61a-4ab7-af8f-4362de46db6a .text-overlay text.value{font-family:Consolas,"Liberation Mono",Menlo,Courier,monospace;font-size:16px}#chart-6aff37f8-c61a-4ab7-af8f-4362de46db6a .text-overlay text.label{font-family:Consolas,"Liberation Mono",Menlo,Courier,monospace;font-size:10px}#chart-6aff37f8-c61a-4ab7-af8f-4362de46db6a .tooltip{font-family:Consolas,"Liberation Mono",Menlo,Courier,monospace;font-size:14px}#chart-6aff37f8-c61a-4ab7-af8f-4362de46db6a text.no_data{font-family:Consolas,"Liberation Mono",Menlo,Courier,monospace;font-size:64px}
#chart-6aff37f8-c61a-4ab7-af8f-4362de46db6a{background-color:rgba(249,249,249,1)}#chart-6aff37f8-c61a-4ab7-af8f-4362de46db6a path,#chart-6aff37f8-c61a-4ab7-af8f-4362de46db6a line,#chart-6aff37f8-c61a-4ab7-af8f-4362de46db6a rect,#chart-6aff37f8-c61a-4ab7-af8f-4362de46db6a circle{-webkit-transition:150ms;-moz-transition:150ms;transition:150ms}#chart-6aff37f8-c61a-4ab7-af8f-4362de46db6a .graph &gt; .background{fill:rgba(249,249,249,1)}#chart-6aff37f8-c61a-4ab7-af8f-4362de46db6a .plot &gt; .background{fill:rgba(255,255,255,1)}#chart-6aff37f8-c61a-4ab7-af8f-4362de46db6a .graph{fill:rgba(0,0,0,.87)}#chart-6aff37f8-c61a-4ab7-af8f-4362de46db6a text.no_data{fill:rgba(0,0,0,1)}#chart-6aff37f8-c61a-4ab7-af8f-4362de46db6a .title{fill:rgba(0,0,0,1)}#chart-6aff37f8-c61a-4ab7-af8f-4362de46db6a .legends .legend text{fill:rgba(0,0,0,.87)}#chart-6aff37f8-c61a-4ab7-af8f-4362de46db6a .legends .legend:hover text{fill:rgba(0,0,0,1)}#chart-6aff37f8-c61a-4ab7-af8f-4362de46db6a .axis .line{stroke:rgba(0,0,0,1)}#chart-6aff37f8-c61a-4ab7-af8f-4362de46db6a .axis .guide.line{stroke:rgba(0,0,0,.54)}#chart-6aff37f8-c61a-4ab7-af8f-4362de46db6a .axis .major.line{stroke:rgba(0,0,0,.87)}#chart-6aff37f8-c61a-4ab7-af8f-4362de46db6a .axis text.major{fill:rgba(0,0,0,1)}#chart-6aff37f8-c61a-4ab7-af8f-4362de46db6a .axis.y .guides:hover .guide.line,#chart-6aff37f8-c61a-4ab7-af8f-4362de46db6a .line-graph .axis.x .guides:hover .guide.line,#chart-6aff37f8-c61a-4ab7-af8f-4362de46db6a .stackedline-graph .axis.x .guides:hover .guide.line,#chart-6aff37f8-c61a-4ab7-af8f-4362de46db6a .xy-graph .axis.x .guides:hover .guide.line{stroke:rgba(0,0,0,1)}#chart-6aff37f8-c61a-4ab7-af8f-4362de46db6a .axis .guides:hover text{fill:rgba(0,0,0,1)}#chart-6aff37f8-c61a-4ab7-af8f-4362de46db6a .reactive{fill-opacity:.7;stroke-opacity:.8;stroke-width:1}#chart-6aff37f8-c61a-4ab7-af8f-4362de46db6a .ci{stroke:rgba(0,0,0,.87)}#chart-6aff37f8-c61a-4ab7-af8f-4362de46db6a .reactive.active,#chart-6aff37f8-c61a-4ab7-af8f-4362de46db6a .active .reactive{fill-opacity:.8;stroke-opacity:.9;stroke-width:4}#chart-6aff37f8-c61a-4ab7-af8f-4362de46db6a .ci .reactive.active{stroke-width:1.5}#chart-6aff37f8-c61a-4ab7-af8f-4362de46db6a .series text{fill:rgba(0,0,0,1)}#chart-6aff37f8-c61a-4ab7-af8f-4362de46db6a .tooltip rect{fill:rgba(255,255,255,1);stroke:rgba(0,0,0,1);-webkit-transition:opacity 150ms;-moz-transition:opacity 150ms;transition:opacity 150ms}#chart-6aff37f8-c61a-4ab7-af8f-4362de46db6a .tooltip .label{fill:rgba(0,0,0,.87)}#chart-6aff37f8-c61a-4ab7-af8f-4362de46db6a .tooltip .label{fill:rgba(0,0,0,.87)}#chart-6aff37f8-c61a-4ab7-af8f-4362de46db6a .tooltip .legend{font-size:.8em;fill:rgba(0,0,0,.54)}#chart-6aff37f8-c61a-4ab7-af8f-4362de46db6a .tooltip .x_label{font-size:.6em;fill:rgba(0,0,0,1)}#chart-6aff37f8-c61a-4ab7-af8f-4362de46db6a .tooltip .xlink{font-size:.5em;text-decoration:underline}#chart-6aff37f8-c61a-4ab7-af8f-4362de46db6a .tooltip .value{font-size:1.5em}#chart-6aff37f8-c61a-4ab7-af8f-4362de46db6a .bound{font-size:.5em}#chart-6aff37f8-c61a-4ab7-af8f-4362de46db6a .max-value{font-size:.75em;fill:rgba(0,0,0,.54)}#chart-6aff37f8-c61a-4ab7-af8f-4362de46db6a .map-element{fill:rgba(255,255,255,1);stroke:rgba(0,0,0,.54) !important}#chart-6aff37f8-c61a-4ab7-af8f-4362de46db6a .map-element .reactive{fill-opacity:inherit;stroke-opacity:inherit}#chart-6aff37f8-c61a-4ab7-af8f-4362de46db6a .color-0,#chart-6aff37f8-c61a-4ab7-af8f-4362de46db6a .color-0 a:visited{stroke:#F44336;fill:#F44336}#chart-6aff37f8-c61a-4ab7-af8f-4362de46db6a .text-overlay .color-0 text{fill:black}
#chart-6aff37f8-c61a-4ab7-af8f-4362de46db6a text.no_data{text-anchor:middle}#chart-6aff37f8-c61a-4ab7-af8f-4362de46db6a .guide.line{fill:none}#chart-6aff37f8-c61a-4ab7-af8f-4362de46db6a .centered{text-anchor:middle}#chart-6aff37f8-c61a-4ab7-af8f-4362de46db6a .title{text-anchor:middle}#chart-6aff37f8-c61a-4ab7-af8f-4362de46db6a .legends .legend text{fill-opacity:1}#chart-6aff37f8-c61a-4ab7-af8f-4362de46db6a .axis.x text{text-anchor:middle}#chart-6aff37f8-c61a-4ab7-af8f-4362de46db6a .axis.x:not(.web) text[transform]{text-anchor:start}#chart-6aff37f8-c61a-4ab7-af8f-4362de46db6a .axis.x:not(.web) text[transform].backwards{text-anchor:end}#chart-6aff37f8-c61a-4ab7-af8f-4362de46db6a .axis.y text{text-anchor:end}#chart-6aff37f8-c61a-4ab7-af8f-4362de46db6a .axis.y text[transform].backwards{text-anchor:start}#chart-6aff37f8-c61a-4ab7-af8f-4362de46db6a .axis.y2 text{text-anchor:start}#chart-6aff37f8-c61a-4ab7-af8f-4362de46db6a .axis.y2 text[transform].backwards{text-anchor:end}#chart-6aff37f8-c61a-4ab7-af8f-4362de46db6a .axis .guide.line{stroke-dasharray:4,4;stroke:black}#chart-6aff37f8-c61a-4ab7-af8f-4362de46db6a .axis .major.guide.line{stroke-dasharray:6,6;stroke:black}#chart-6aff37f8-c61a-4ab7-af8f-4362de46db6a .horizontal .axis.y .guide.line,#chart-6aff37f8-c61a-4ab7-af8f-4362de46db6a .horizontal .axis.y2 .guide.line,#chart-6aff37f8-c61a-4ab7-af8f-4362de46db6a .vertical .axis.x .guide.line{opacity:0}#chart-6aff37f8-c61a-4ab7-af8f-4362de46db6a .horizontal .axis.always_show .guide.line,#chart-6aff37f8-c61a-4ab7-af8f-4362de46db6a .vertical .axis.always_show .guide.line{opacity:1 !important}#chart-6aff37f8-c61a-4ab7-af8f-4362de46db6a .axis.y .guides:hover .guide.line,#chart-6aff37f8-c61a-4ab7-af8f-4362de46db6a .axis.y2 .guides:hover .guide.line,#chart-6aff37f8-c61a-4ab7-af8f-4362de46db6a .axis.x .guides:hover .guide.line{opacity:1}#chart-6aff37f8-c61a-4ab7-af8f-4362de46db6a .axis .guides:hover text{opacity:1}#chart-6aff37f8-c61a-4ab7-af8f-4362de46db6a .nofill{fill:none}#chart-6aff37f8-c61a-4ab7-af8f-4362de46db6a .subtle-fill{fill-opacity:.2}#chart-6aff37f8-c61a-4ab7-af8f-4362de46db6a .dot{stroke-width:1px;fill-opacity:1;stroke-opacity:1}#chart-6aff37f8-c61a-4ab7-af8f-4362de46db6a .dot.active{stroke-width:5px}#chart-6aff37f8-c61a-4ab7-af8f-4362de46db6a .dot.negative{fill:transparent}#chart-6aff37f8-c61a-4ab7-af8f-4362de46db6a text,#chart-6aff37f8-c61a-4ab7-af8f-4362de46db6a tspan{stroke:none !important}#chart-6aff37f8-c61a-4ab7-af8f-4362de46db6a .series text.active{opacity:1}#chart-6aff37f8-c61a-4ab7-af8f-4362de46db6a .tooltip rect{fill-opacity:.95;stroke-width:.5}#chart-6aff37f8-c61a-4ab7-af8f-4362de46db6a .tooltip text{fill-opacity:1}#chart-6aff37f8-c61a-4ab7-af8f-4362de46db6a .showable{visibility:hidden}#chart-6aff37f8-c61a-4ab7-af8f-4362de46db6a .showable.shown{visibility:visible}#chart-6aff37f8-c61a-4ab7-af8f-4362de46db6a .gauge-background{fill:rgba(229,229,229,1);stroke:none}#chart-6aff37f8-c61a-4ab7-af8f-4362de46db6a .bg-lines{stroke:rgba(249,249,249,1);stroke-width:2px}</style><script type="text/javascript">window.pygal = window.pygal || {};window.pygal.config = window.pygal.config || {};window.pygal.config['6aff37f8-c61a-4ab7-af8f-4362de46db6a'] = {"allow_interruptions": false, "box_mode": "extremes", "classes": ["pygal-chart"], "css": ["file://style.css", "file://graph.css"], "defs": [], "disable_xml_declaration": false, "dots_size": 2.5, "dynamic_print_values": false, "explicit_size": false, "fill": false, "force_uri_protocol": "https", "formatter": null, "half_pie": false, "height": 600, "include_x_axis": false, "inner_radius": 0, "interpolate": null, "interpolation_parameters": {}, "interpolation_precision": 250, "inverse_y_axis": false, "js": ["//kozea.github.io/pygal.js/2.0.x/pygal-tooltips.min.js"], "legend_at_bottom": false, "legend_at_bottom_columns": null, "legend_box_size": 12, "logarithmic": false, "margin": 20, "margin_bottom": null, "margin_left": null, "margin_right": null, "margin_top": null, "max_scale": 16, "min_scale": 4, "missing_value_fill_truncation": "x", "no_data_text": "No data", "no_prefix": false, "order_min": null, "pretty_print": false, "print_labels": false, "print_values": false, "print_values_position": "center", "print_zeroes": true, "range": null, "rounded_bars": null, "secondary_range": null, "show_dots": true, "show_legend": true, "show_minor_x_labels": true, "show_minor_y_labels": true, "show_only_major_dots": false, "show_x_guides": false, "show_x_labels": true, "show_y_guides": true, "show_y_labels": true, "spacing": 10, "stack_from_top": false, "strict": false, "stroke": true, "stroke_style": null, "style": {"background": "rgba(249, 249, 249, 1)", "ci_colors": [], "colors": ["#F44336", "#3F51B5", "#009688", "#FFC107", "#FF5722", "#9C27B0", "#03A9F4", "#8BC34A", "#FF9800", "#E91E63", "#2196F3", "#4CAF50", "#FFEB3B", "#673AB7", "#00BCD4", "#CDDC39", "#9E9E9E", "#607D8B"], "dot_opacity": "1", "font_family": "Consolas, \"Liberation Mono\", Menlo, Courier, monospace", "foreground": "rgba(0, 0, 0, .87)", "foreground_strong": "rgba(0, 0, 0, 1)", "foreground_subtle": "rgba(0, 0, 0, .54)", "guide_stroke_color": "black", "guide_stroke_dasharray": "4,4", "label_font_family": "Consolas, \"Liberation Mono\", Menlo, Courier, monospace", "label_font_size": 10, "legend_font_family": "Consolas, \"Liberation Mono\", Menlo, Courier, monospace", "legend_font_size": 14, "major_guide_stroke_color": "black", "major_guide_stroke_dasharray": "6,6", "major_label_font_family": "Consolas, \"Liberation Mono\", Menlo, Courier, monospace", "major_label_font_size": 10, "no_data_font_family": "Consolas, \"Liberation Mono\", Menlo, Courier, monospace", "no_data_font_size": 64, "opacity": ".7", "opacity_hover": ".8", "plot_background": "rgba(255, 255, 255, 1)", "stroke_opacity": ".8", "stroke_opacity_hover": ".9", "stroke_width": "1", "stroke_width_hover": "4", "title_font_family": "Consolas, \"Liberation Mono\", Menlo, Courier, monospace", "title_font_size": 16, "tooltip_font_family": "Consolas, \"Liberation Mono\", Menlo, Courier, monospace", "tooltip_font_size": 14, "transition": "150ms", "value_background": "rgba(229, 229, 229, 1)", "value_colors": [], "value_font_family": "Consolas, \"Liberation Mono\", Menlo, Courier, monospace", "value_font_size": 16, "value_label_font_family": "Consolas, \"Liberation Mono\", Menlo, Courier, monospace", "value_label_font_size": 10}, "title": "\u0440\u0435\u0437\u0443\u043b\u044c\u0442\u0430\u0442 1000 \u0431\u0440\u043e\u0441\u043a\u043e\u0432 \u0434\u0432\u0443\u0445 \u043a\u0443\u0431\u0438\u043a\u043e\u0432 D6", "tooltip_border_radius": 0, "tooltip_fancy_mode": true, "truncate_label": null, "truncate_legend": null, "width": 800, "x_label_rotation": 0, "x_labels": ["2", "3", "4", "5", "6", "7", "8", "9", "10", "11", "12"], "x_labels_major": null, "x_labels_major_count": null, "x_labels_major_every": null, "x_title": "\u0420\u0435\u0437\u0443\u043b\u044c\u0442\u0430\u0442", "xrange": null, "y_label_rotation": 0, "y_labels": null, "y_labels_major": null, "y_labels_major_count": null, "y_labels_major_every": null, "y_title": "\u0427\u0430\u0441\u0442\u043e\u0442\u0430 \u0440\u0435\u0437\u0443\u043b\u044c\u0442\u0430\u0442\u0430", "zero": 0, "legends": ["D6 + D6"]}</script><script type="text/javascript" xlink:href="https://kozea.github.io/pygal.js/2.0.x/pygal-tooltips.min.js" /></defs><title>результат 1000 бросков двух кубиков D6</title><g class="graph bar-graph vertical"><rect x="0" y="0" width="800" height="600" class="background" /><g transform="translate(154, 46)" class="plot"><rect x="0" y="0" width="625.2" height="488" class="background" /><g class="axis y always_show"><g class="guides"><path d="M0.000000 478.615385 h625.200000" class="axis major line" /><text x="-5" y="482.11538461538464" class="major">0</text><title>0</title></g><g class="guides"><path d="M0.000000 448.145854 h625.200000" class="guide line" /><text x="-5" y="451.6458541458542" class="">10</text><title>10</title></g><g class="guides"><path d="M0.000000 417.676324 h625.200000" class="guide line" /><text x="-5" y="421.1763236763237" class="">20</text><title>20</title></g><g class="guides"><path d="M0.000000 387.206793 h625.200000" class="guide line" /><text x="-5" y="390.70679320679324" class="">30</text><title>30</title></g><g class="guides"><path d="M0.000000 356.737263 h625.200000" class="guide line" /><text x="-5" y="360.23726273726277" class="">40</text><title>40</title></g><g class="guides"><path d="M0.000000 326.267732 h625.200000" class="major guide line" /><text x="-5" y="329.7677322677323" class="major">50</text><title>50</title></g><g class="guides"><path d="M0.000000 295.798202 h625.200000" class="guide line" /><text x="-5" y="299.29820179820183" class="">60</text><title>60</title></g><g class="guides"><path d="M0.000000 265.328671 h625.200000" class="guide line" /><text x="-5" y="268.82867132867136" class="">70</text><title>70</title></g><g class="guides"><path d="M0.000000 234.859141 h625.200000" class="guide line" /><text x="-5" y="238.3591408591409" class="">80</text><title>80</title></g><g class="guides"><path d="M0.000000 204.389610 h625.200000" class="guide line" /><text x="-5" y="207.88961038961043" class="">90</text><title>90</title></g><g class="guides"><path d="M0.000000 173.920080 h625.200000" class="major guide line" /><text x="-5" y="177.42007992007996" class="major">100</text><title>100</title></g><g class="guides"><path d="M0.000000 143.450549 h625.200000" class="guide line" /><text x="-5" y="146.9505494505495" class="">110</text><title>110</title></g><g class="guides"><path d="M0.000000 112.981019 h625.200000" class="guide line" /><text x="-5" y="116.48101898101902" class="">120</text><title>120</title></g><g class="guides"><path d="M0.000000 82.511489 h625.200000" class="guide line" /><text x="-5" y="86.01148851148855" class="">130</text><title>130</title></g><g class="guides"><path d="M0.000000 52.041958 h625.200000" class="guide line" /><text x="-5" y="55.54195804195808" class="">140</text><title>140</title></g><g class="guides"><path d="M0.000000 21.572428 h625.200000" class="major guide line" /><text x="-5" y="25.072427572427614" class="major">150</text><title>150</title></g></g><g class="axis x"><path d="M0.000000 0.000000 v488.000000" class="line" /><g class="guides"><path d="M39.348252 0.000000 v488.000000" class="guide line" /><text x="39.348251748251755" y="503.0" class="">2</text></g><g class="guides"><path d="M93.998601 0.000000 v488.000000" class="guide line" /><text x="93.9986013986014" y="503.0" class="">3</text></g><g class="guides"><path d="M148.648951 0.000000 v488.000000" class="guide line" /><text x="148.64895104895103" y="503.0" class="">4</text></g><g class="guides"><path d="M203.299301 0.000000 v488.000000" class="guide line" /><text x="203.29930069930072" y="503.0" class="">5</text></g><g class="guides"><path d="M257.949650 0.000000 v488.000000" class="guide line" /><text x="257.9496503496504" y="503.0" class="">6</text></g><g class="guides"><path d="M312.600000 0.000000 v488.000000" class="guide line" /><text x="312.6" y="503.0" class="">7</text></g><g class="guides"><path d="M367.250350 0.000000 v488.000000" class="guide line" /><text x="367.25034965034973" y="503.0" class="">8</text></g><g class="guides"><path d="M421.900699 0.000000 v488.000000" class="guide line" /><text x="421.9006993006993" y="503.0" class="">9</text></g><g class="guides"><path d="M476.551049 0.000000 v488.000000" class="guide line" /><text x="476.551048951049" y="503.0" class="">10</text></g><g class="guides"><path d="M531.201399 0.000000 v488.000000" class="guide line" /><text x="531.2013986013986" y="503.0" class="">11</text></g><g class="guides"><path d="M585.851748 0.000000 v488.000000" class="guide line" /><text x="585.8517482517483" y="503.0" class="">12</text></g></g><g class="series serie-0 color-0"><g class="bars"><g class="bar"><rect x="18.187636363636365" y="393.3006993006993" rx="0" ry="0" width="42.32123076923077" height="85.31468531468533" class="rect reactive tooltip-trigger" /><desc class="value">28</desc><desc class="x centered">39.348251748251755</desc><desc class="y centered">435.958041958042</desc><desc class="x_label">2</desc></g><g class="bar"><rect x="72.83798601398603" y="353.69030969030973" rx="0" ry="0" width="42.32123076923077" height="124.92507492507491" class="rect reactive tooltip-trigger" /><desc class="value">41</desc><desc class="x centered">93.99860139860141</desc><desc class="y centered">416.1528471528472</desc><desc class="x_label">3</desc></g><g class="bar"><rect x="127.48833566433566" y="250.09390609390613" rx="0" ry="0" width="42.32123076923077" height="228.5214785214785" class="rect reactive tooltip-trigger" /><desc class="value">75</desc><desc class="x centered">148.64895104895106</desc><desc class="y centered">364.3546453546454</desc><desc class="x_label">4</desc></g><g class="bar"><rect x="182.13868531468532" y="116.02797202797206" rx="0" ry="0" width="42.32123076923077" height="362.5874125874126" class="rect reactive tooltip-trigger" /><desc class="value">119</desc><desc class="x centered">203.29930069930072</desc><desc class="y centered">297.32167832167835</desc><desc class="x_label">5</desc></g><g class="bar"><rect x="236.789034965035" y="42.90109890109892" rx="0" ry="0" width="42.32123076923077" height="435.7142857142857" class="rect reactive tooltip-trigger" /><desc class="value">143</desc><desc class="x centered">257.94965034965037</desc><desc class="y centered">260.75824175824175</desc><desc class="x_label">6</desc></g><g class="bar"><rect x="291.43938461538465" y="9.384615384615415" rx="0" ry="0" width="42.32123076923077" height="469.2307692307692" class="rect reactive tooltip-trigger" /><desc class="value">154</desc><desc class="x centered">312.6</desc><desc class="y centered">244.00000000000003</desc><desc class="x_label">7</desc></g><g class="bar"><rect x="346.08973426573425" y="33.760239760239756" rx="0" ry="0" width="42.32123076923077" height="444.8551448551449" class="rect reactive tooltip-trigger" /><desc class="value">146</desc><desc class="x centered">367.2503496503496</desc><desc class="y centered">256.1878121878122</desc><desc class="x_label">8</desc></g><g class="bar"><rect x="400.74008391608396" y="109.93406593406598" rx="0" ry="0" width="42.32123076923077" height="368.68131868131866" class="rect reactive tooltip-trigger" /><desc class="value">121</desc><desc class="x centered">421.90069930069933</desc><desc class="y centered">294.2747252747253</desc><desc class="x_label">9</desc></g><g class="bar"><rect x="455.3904335664336" y="198.29570429570435" rx="0" ry="0" width="42.32123076923077" height="280.3196803196803" class="rect reactive tooltip-trigger" /><desc class="value">92</desc><desc class="x centered">476.551048951049</desc><desc class="y centered">338.4555444555445</desc><desc class="x_label">10</desc></g><g class="bar"><rect x="510.0407832167833" y="311.03296703296706" rx="0" ry="0" width="42.32123076923077" height="167.58241758241758" class="rect reactive tooltip-trigger" /><desc class="value">55</desc><desc class="x centered">531.2013986013988</desc><desc class="y centered">394.8241758241759</desc><desc class="x_label">11</desc></g><g class="bar"><rect x="564.6911328671329" y="399.39460539460543" rx="0" ry="0" width="42.32123076923077" height="79.2207792207792" class="rect reactive tooltip-trigger" /><desc class="value">26</desc><desc class="x centered">585.8517482517483</desc><desc class="y centered">439.00499500499507</desc><desc class="x_label">12</desc></g></g></g></g><g class="titles"><text x="400.0" y="26" class="title plot_title">результат 1000 бросков двух кубиков D6</text><text x="467.40000000000003" y="580" class="title">Результат</text><text x="80.80000000000001" y="316.0" class="title" transform="rotate(-90 80.800000 290.000000)">Частота результата</text></g><g transform="translate(154, 46)" class="plot overlay"><g class="series serie-0 color-0" /></g><g transform="translate(154, 46)" class="plot text-overlay"><g class="series serie-0 color-0" /></g><g transform="translate(154, 46)" class="plot tooltip-overlay"><g transform="translate(0 0)" style="opacity: 0" class="tooltip"><rect rx="0" ry="0" width="0" height="0" class="tooltip-box" /><g class="text" /></g></g><g transform="translate(10, 56)" class="legends"><g id="activate-serie-0" class="legend reactive activate-serie"><rect x="0.0" y="1.0" width="12" height="12" class="color-0 reactive" /><text x="17.0" y="11.2">D6 + D6</text></g></g><g transform="translate(790, 56)" class="legends" /></g></svg>